answer,definition
insects,What is a nighthawk's primary food source?
false,True or false? Nighthawks are closely related to hawks.
false,True or false? Nighthawks make nests.
South America, Where do Common Nighthawks spend the winter?
true, True or false? Bullbat is another name for the Common Nighthawk.