answer,definition
boar,What is a male raccoon called?
sow,What is a female raccoon called?
omnivorous,Are raccoons herbivorous, carnivorous, or omnivorous?
true,True or false? Raccoons are nocturnal.
false,True or false? Raccoons hibernate.
true,True or false? Raccoons can run at speeds up to 15 miles per hour.